0
SECTION
2
HEADER
9
$INSUNITS
70
4
9
$ACADVER
1
AC1014
9
$HANDSEED
5
FFFF
0
ENDSEC
0
SECTION
2
TABLES
0
TABLE
2
VPORT
5
8
100
AcDbSymbolTable
0
ENDTAB
0
TABLE
2
LTYPE
5
5
100
AcDbSymbolTable
0
LTYPE
5
14
100
AcDbSymbolTableRecord
100
AcDbLinetypeTableRecord
2
BYBLOCK
70
0
0
LTYPE
5
15
100
AcDbSymbolTableRecord
100
AcDbLinetypeTableRecord
2
BYLAYER
70
0
0
ENDTAB
0
TABLE
2
LAYER
5
2
100
AcDbSymbolTable
70
2
0
LAYER
5
50
100
AcDbSymbolTableRecord
100
AcDbLayerTableRecord
2
0
70
0
6
CONTINUOUS
0
ENDTAB
0
TABLE
2
STYLE
5
3
100
AcDbSymbolTable
70
1
0
STYLE
5
11
100
AcDbSymbolTableRecord
100
AcDbTextStyleTableRecord
2
STANDARD
70
0
0
ENDTAB
0
TABLE
2
VIEW
5
6
100
AcDbSymbolTable
70
0
0
ENDTAB
0
TABLE
2
UCS
5
7
100
AcDbSymbolTable
70
0
0
ENDTAB
0
TABLE
2
APPID
5
9
100
AcDbSymbolTable
70
2
0
APPID
5
12
100
AcDbSymbolTableRecord
100
AcDbRegAppTableRecord
2
ACAD
70
0
0
ENDTAB
0
TABLE
2
DIMSTYLE
5
A
100
AcDbSymbolTable
70
1
0
ENDTAB
0
TABLE
2
BLOCK_RECORD
5
1
100
AcDbSymbolTable
70
1
0
BLOCK_RECORD
5
1F
100
AcDbSymbolTableRecord
100
AcDbBlockTableRecord
2
*MODEL_SPACE
0
BLOCK_RECORD
5
1B
100
AcDbSymbolTableRecord
100
AcDbBlockTableRecord
2
*PAPER_SPACE
0
ENDTAB
0
ENDSEC
0
SECTION
2
BLOCKS
0
BLOCK
5
20
100
AcDbEntity
100
AcDbBlockBegin
2
*MODEL_SPACE
0
ENDBLK
5
21
100
AcDbEntity
100
AcDbBlockEnd
0
BLOCK
5
1C
100
AcDbEntity
100
AcDbBlockBegin
2
*PAPER_SPACE
0
ENDBLK
5
1D
100
AcDbEntity
100
AcDbBlockEnd
0
ENDSEC
0
SECTION
2
ENTITIES
0
ARC
5
100
100
AcDbEntity
8
0
100
AcDbCircle
10
-81
20
45.5
30
0
40
2.0000000000000107
210
0
220
0
230
1
100
AcDbArc
50
180
51
269.9999999999996
0
LINE
5
101
100
AcDbEntity
8
0
100
AcDbLine
10
-81.000000000000014
20
43.499999999999986
30
0
11
-47.000000000000014
21
43.5
31
0
0
ARC
5
102
100
AcDbEntity
8
0
100
AcDbCircle
10
-47.000000000000021
20
47.500000000000007
30
0
40
4.0000000000000124
210
0
220
0
230
1
100
AcDbArc
50
270.00000000000011
51
360
0
LINE
5
103
100
AcDbEntity
8
0
100
AcDbLine
10
-43.000000000000007
20
47.5
30
0
11
-43.000000000000007
21
48.5
31
0
0
ARC
5
104
100
AcDbEntity
8
0
100
AcDbCircle
10
-39
20
48.5
30
0
40
4.0000000000000036
210
0
220
-0
230
1
100
AcDbArc
50
90
51
180
0
LINE
5
105
100
AcDbEntity
8
0
100
AcDbLine
10
-39
20
52.5
30
0
11
-30.984359711335671
21
52.5
31
0
0
ARC
5
106
100
AcDbEntity
8
0
100
AcDbCircle
10
-30.984359711335664
20
56.499999999999993
30
0
40
3.9999999999999947
210
0
220
0
230
1
100
AcDbArc
50
269.99999999999989
51
356.41667830152812
0
ARC
5
107
100
AcDbEntity
8
0
100
AcDbCircle
10
-23.000000000000014
20
56
30
0
40
4.0000000000000036
210
0
220
-0
230
1
100
AcDbArc
50
90
51
176.41667830152812
0
LINE
5
108
100
AcDbEntity
8
0
100
AcDbLine
10
-23.000000000000014
20
60
30
0
11
-12.984359711335674
21
60
31
0
0
ARC
5
109
100
AcDbEntity
8
0
100
AcDbCircle
10
-12.984359711335674
20
56
30
0
40
4.0000000000000036
210
0
220
-0
230
1
100
AcDbArc
50
3.5833216984719058
51
90
0
ARC
5
110
100
AcDbEntity
8
0
100
AcDbCircle
10
-5.0000000000000053
20
56.500000000000014
30
0
40
4.0000000000000107
210
0
220
0
230
1
100
AcDbArc
50
183.5833216984721
51
269.99999999999983
0
LINE
5
111
100
AcDbEntity
8
0
100
AcDbLine
10
-5.000000000000016
20
52.5
30
0
11
13.000000000000004
21
52.5
31
0
0
ARC
5
112
100
AcDbEntity
8
0
100
AcDbCircle
10
13.000000000000004
20
48.5
30
0
40
4.0000000000000018
210
0
220
-0
230
1
100
AcDbArc
50
0
51
90
0
LINE
5
113
100
AcDbEntity
8
0
100
AcDbLine
10
17.000000000000004
20
48.5
30
0
11
17
21
47.5
31
0
0
ARC
5
114
100
AcDbEntity
8
0
100
AcDbCircle
10
21.000000000000007
20
47.5
30
0
40
4.0000000000000036
210
0
220
0
230
1
100
AcDbArc
50
180
51
269.99999999999989
0
LINE
5
115
100
AcDbEntity
8
0
100
AcDbLine
10
21
20
43.5
30
0
11
35.000000000000007
21
43.5
31
0
0
ARC
5
116
100
AcDbEntity
8
0
100
AcDbCircle
10
34.999999999999993
20
47.500000000000007
30
0
40
4.0000000000000124
210
0
220
0
230
1
100
AcDbArc
50
270.00000000000023
51
360
0
LINE
5
117
100
AcDbEntity
8
0
100
AcDbLine
10
39
20
47.5
30
0
11
38.999999999999986
21
70
31
0
0
LINE
5
118
100
AcDbEntity
8
0
100
AcDbLine
10
38.999999999999986
20
70
30
0
11
-55
21
70
31
0
0
LINE
5
119
100
AcDbEntity
8
0
100
AcDbLine
10
-55
20
70
30
0
11
-79.681681984990789
21
61.185113576789007
31
0
0
ARC
5
120
100
AcDbEntity
8
0
100
AcDbCircle
10
-77.999999999999972
20
56.476404018814804
30
0
40
5.0000000000000275
210
0
220
0
230
1
100
AcDbArc
50
109.65382405805366
51
180
0
LINE
5
121
100
AcDbEntity
8
0
100
AcDbLine
10
-82.999999999999986
20
56.476404018814819
30
0
11
-83
21
45.5
31
0
0
CIRCLE
5
122
100
AcDbEntity
8
0
100
AcDbCircle
10
-40.483314773547903
20
65
30
0
40
1.749999999999998
210
0
220
0
230
1
0
CIRCLE
5
123
100
AcDbEntity
8
0
100
AcDbCircle
10
22.48331477354786
20
65
30
0
40
1.749999999999998
210
0
220
0
230
1
0
CIRCLE
5
124
100
AcDbEntity
8
0
100
AcDbCircle
10
-78
20
49.499999999999993
30
0
40
1.749999999999998
210
0
220
0
230
1
0
ENDSEC
0
SECTION
2
OBJECTS
0
DICTIONARY
5
C
100
AcDbDictionary
3
ACAD_GROUP
350
D
3
ACAD_MLINESTYLE
350
17
0
DICTIONARY
5
D
100
AcDbDictionary
0
DICTIONARY
5
1A
330
C
100
AcDbDictionary
0
DICTIONARY
5
17
100
AcDbDictionary
0
ENDSEC
0
EOF
