0
SECTION
2
HEADER
9
$INSUNITS
70
4
9
$ACADVER
1
AC1014
9
$HANDSEED
5
FFFF
0
ENDSEC
0
SECTION
2
TABLES
0
TABLE
2
VPORT
5
8
100
AcDbSymbolTable
0
ENDTAB
0
TABLE
2
LTYPE
5
5
100
AcDbSymbolTable
0
LTYPE
5
14
100
AcDbSymbolTableRecord
100
AcDbLinetypeTableRecord
2
BYBLOCK
70
0
0
LTYPE
5
15
100
AcDbSymbolTableRecord
100
AcDbLinetypeTableRecord
2
BYLAYER
70
0
0
ENDTAB
0
TABLE
2
LAYER
5
2
100
AcDbSymbolTable
70
2
0
LAYER
5
50
100
AcDbSymbolTableRecord
100
AcDbLayerTableRecord
2
0
70
0
6
CONTINUOUS
0
ENDTAB
0
TABLE
2
STYLE
5
3
100
AcDbSymbolTable
70
1
0
STYLE
5
11
100
AcDbSymbolTableRecord
100
AcDbTextStyleTableRecord
2
STANDARD
70
0
0
ENDTAB
0
TABLE
2
VIEW
5
6
100
AcDbSymbolTable
70
0
0
ENDTAB
0
TABLE
2
UCS
5
7
100
AcDbSymbolTable
70
0
0
ENDTAB
0
TABLE
2
APPID
5
9
100
AcDbSymbolTable
70
2
0
APPID
5
12
100
AcDbSymbolTableRecord
100
AcDbRegAppTableRecord
2
ACAD
70
0
0
ENDTAB
0
TABLE
2
DIMSTYLE
5
A
100
AcDbSymbolTable
70
1
0
ENDTAB
0
TABLE
2
BLOCK_RECORD
5
1
100
AcDbSymbolTable
70
1
0
BLOCK_RECORD
5
1F
100
AcDbSymbolTableRecord
100
AcDbBlockTableRecord
2
*MODEL_SPACE
0
BLOCK_RECORD
5
1B
100
AcDbSymbolTableRecord
100
AcDbBlockTableRecord
2
*PAPER_SPACE
0
ENDTAB
0
ENDSEC
0
SECTION
2
BLOCKS
0
BLOCK
5
20
100
AcDbEntity
100
AcDbBlockBegin
2
*MODEL_SPACE
0
ENDBLK
5
21
100
AcDbEntity
100
AcDbBlockEnd
0
BLOCK
5
1C
100
AcDbEntity
100
AcDbBlockBegin
2
*PAPER_SPACE
0
ENDBLK
5
1D
100
AcDbEntity
100
AcDbBlockEnd
0
ENDSEC
0
SECTION
2
ENTITIES
0
LWPOLYLINE
5
100
100
AcDbEntity
8
0
100
AcDbPolyline
90
30
70
1
43
0.0
10
-46.685740025742255
20
-70
42
-0.085966824387622584
10
-62.829887081653808
20
-67.203611756552206
10
-79.681681984990789
20
-61.185113576789014
42
-0.31696022048871969
10
-83
20
-56.476404018814819
10
-83
20
21.500000000000004
42
-0.41421356237309503
10
-81.000000000000014
20
23.499999999999996
10
-47.000000000000014
20
23.499999999999996
42
-0.41421356237309492
10
-43.000000000000007
20
19.499999999999996
10
-43.000000000000007
20
-16.499999999999989
42
0.4142135623730957
10
-39
20
-20.499999999999989
10
-31.000000000000007
20
-20.499999999999968
42
-0.41421356237309537
10
-26.999999999999996
20
-24.499999999999954
10
-26.999999999999989
20
-27.499999999999957
42
0.41421356237309503
10
-22.999999999999975
20
-31.499999999999947
10
-12.99999999999998
20
-31.499999999999911
42
0.41421356237309503
10
-8.9999999999999929
20
-27.499999999999897
10
-9.0000000000000053
20
-24.499999999999893
42
-0.41421356237309553
10
-5.0000000000000178
20
-20.499999999999879
10
2.9999999999999938
20
-20.499999999999851
42
0.41421356237309404
10
6.9999999999999805
20
-16.499999999999851
10
6.9999999999999769
20
18.000000000000004
42
-0.41421356237309459
10
10.999999999999979
20
22
10
51
20
21.999999999999996
42
-0.41421356237309503
10
55
20
17.999999999999993
10
55
20
9.9999999999999929
42
0.4142135623730952
10
59
20
5.9999999999999885
10
63.000000000000007
20
5.9999999999999769
42
-0.4142135623730947
10
65
20
3.9999999999999858
10
65
20
-65
42
-0.41421356237309553
10
60
20
-70
0
CIRCLE
5
101
100
AcDbEntity
8
0
100
AcDbCircle
10
-78
20
-23.999999999999993
30
0
40
1.749999999999998
210
0
220
0
230
1
0
CIRCLE
5
102
100
AcDbEntity
8
0
100
AcDbCircle
10
-78
20
19.25
30
0
40
1.749999999999998
210
0
220
0
230
1
0
CIRCLE
5
103
100
AcDbEntity
8
0
100
AcDbCircle
10
20
20
-64.999999999999986
30
0
40
1.749999999999998
210
0
220
0
230
1
0
CIRCLE
5
104
100
AcDbEntity
8
0
100
AcDbCircle
10
60
20
-3.0000000000000138
30
0
40
1.749999999999998
210
0
220
0
230
1
0
CIRCLE
5
105
100
AcDbEntity
8
0
100
AcDbCircle
10
-28.000000000000007
20
-64.999999999999986
30
0
40
1.749999999999998
210
0
220
0
230
1
0
ENDSEC
0
SECTION
2
OBJECTS
0
DICTIONARY
5
C
100
AcDbDictionary
3
ACAD_GROUP
350
D
3
ACAD_MLINESTYLE
350
17
0
DICTIONARY
5
D
100
AcDbDictionary
0
DICTIONARY
5
1A
330
C
100
AcDbDictionary
0
DICTIONARY
5
17
100
AcDbDictionary
0
ENDSEC
0
EOF
